C:\Workspace\pseudocodeservice-web\src\main\java\edu\umich\icpsr\c2metadata\controller\PseudocodeController.java
C:\Workspace\pseudocodeservice-web\src\main\java\edu\umich\icpsr\c2metadata\service\PseudocodeServiceImpl.java
C:\Workspace\pseudocodeservice-web\src\main\java\edu\umich\icpsr\c2metadata\swagger\SwaggerConfig.java
C:\Workspace\pseudocodeservice-web\src\main\java\edu\umich\icpsr\c2metadata\swagger\WebAppConfig.java
